{"servers": 
	{"name":
		{"cer1" :
			{"prot": "udp", "ip": "127.0.0.1", "port": "5001"},
		"cer7" :
			{ "prot": "udp", "ip": "10.0.6.1", "port": "5001"}
		}
	},
 
"clients": 
	{"name":
		{"peo6" : 
			{"prot": "udp", "destname":"cer1", "ipdest": "127.0.0.1", "destport": "5001", 
				"schedule" : 
					{"start_time":"2","end_time":"13"},
				"transmission" :
					{"Mbytes":"10", "Bandwidth":"6"}
			}, 
		"peo2" : 
			{"prot": "udp", "destname":"cer7", "ipdest": "10.0.6.1", "destport": "5001", 
				"schedule" :
					{"start_time":"10","duration":"50"},
				"transmission" :
					{"Mbytes":"10", "Bandwidth":"6"}
			}
		}
	}
}
